module gitlab.com/suleim144/toqu-rpc-lib

go 1.19

require (
	github.com/stretchr/testify v1.8.4
	google.golang.org/grpc v1.61.0
	google.golang.org/protobuf v1.32.0
)

require (
	github.com/davecgh/go-spew v1.1.1 // indirect
	github.com/golang/protobuf v1.5.3 // indirect
	github.com/pmezard/go-difflib v1.0.0 // indirect
	github.com/stretchr/objx v0.5.0 // indirect
	golang.org/x/net v0.18.0 // indirect
	golang.org/x/sys v0.14.0 // indirect
	golang.org/x/text v0.14.0 // indirect
	google.golang.org/genproto/googleapis/rpc v0.0.0-20231106174013-bbf56f31fb17 // indirect
	gopkg.in/yaml.v3 v3.0.1 // indirect
)
